# compile vhdl design source files
vhdl xil_defaultlib  \
"../../../../../../../Package/MainPackage.vhd" \
"../../../../../model/RISCV_DEC.vhd" \
"../../../../../testbench/RISCV_DEC_TB.vhd" \

# Do not sort compile order
nosort
